<?xml version="1.0" encoding="utf-8"?>
<!-- Generator: Adobe Illustrator 23.0.1, SVG Export Plug-In . SVG Version: 6.00 Build 0)  -->
<svg version="1.1" id="Calque_1" xmlns="http://www.w3.org/2000/svg" xmlns:xlink="http://www.w3.org/1999/xlink" x="0px" y="0px"
	 viewBox="0 0 600 600" style="enable-background:new 0 0 600 600;" xml:space="preserve">
<style type="text/css">
	.st0{fill:#DF4444;}
	.st1{fill:#0040A5;}
	.st2{fill:#B16F29;}
	.st3{fill:#8B8C88;}
	.st4{fill:#B96063;}
	.st5{fill:#B70B0B;}
	.st6{fill:#A6C77E;}
	.st7{fill:#CC8C86;}
	.st8{fill:#6AB0E8;}
	.st9{fill:#FFC457;}
	.st10{fill:#E4E823;}
	.st11{fill:#F6D600;}
	.st12{fill:#A5CAF8;}
	.st13{fill:#CC7E58;}
	.st14{fill:#39826E;}
	.st15{fill:#504F4A;}
	.st16{fill:#FFA74C;}
	.st17{fill:#9C705A;}
	.st18{fill:#DA71BE;}
	.st19{fill:#6680DF;}
	.st20{fill:#FF9090;}
</style>
<g>
	<path class="st1" d="M227.8,66.4h181c43,0,75.6,10.3,97.9,31c22.3,20.7,33.5,50.4,33.5,89.2c0,23.5-4.2,43.1-12.7,58.6
		c-8.5,15.5-21.4,28.6-38.7,39.4c17.4,3.3,32.1,8.4,44.3,15.2c12.2,6.8,22.1,15.2,29.7,25.1c7.6,9.9,13.1,21.1,16.4,33.5
		c3.3,12.4,5,25.6,5,39.7c0,21.9-3.8,41.3-11.5,58.3c-7.6,16.9-18.4,31.2-32.2,42.8c-13.8,11.6-30.7,20.2-50.5,26
		c-19.8,5.8-42.1,8.7-66.9,8.7H227.8V66.4z M349.3,249.8h22.3c38,0,57-15.1,57-45.2c0-30.2-19-45.2-57-45.2h-22.3V249.8z
		 M349.3,439.4h26.6c30.6,0,52.5-3.9,65.7-11.8c13.2-7.8,19.8-20.4,19.8-37.8s-6.6-29.9-19.8-37.8c-13.2-7.8-35.1-11.8-65.7-11.8
		h-26.6V439.4z"/>
</g>
</svg>
