<?xml version="1.0" encoding="utf-8"?>
<!-- Generator: Adobe Illustrator 23.0.1, SVG Export Plug-In . SVG Version: 6.00 Build 0)  -->
<svg version="1.1" id="Calque_1" xmlns="http://www.w3.org/2000/svg" xmlns:xlink="http://www.w3.org/1999/xlink" x="0px" y="0px"
	 viewBox="0 0 600 600" style="enable-background:new 0 0 600 600;" xml:space="preserve">
<style type="text/css">
	.st0{fill:#DF4444;}
	.st1{fill:#0040A5;}
	.st2{fill:#B16F29;}
	.st3{fill:#8B8C88;}
	.st4{fill:#B96063;}
	.st5{fill:#B70B0B;}
	.st6{fill:#A6C77E;}
	.st7{fill:#CC8C86;}
	.st8{fill:#6AB0E8;}
	.st9{fill:#FFC457;}
	.st10{fill:#E4E823;}
	.st11{fill:#F6D600;}
	.st12{fill:#A5CAF8;}
	.st13{fill:#CC7E58;}
	.st14{fill:#39826E;}
	.st15{fill:#504F4A;}
	.st16{fill:#FFA74C;}
	.st17{fill:#9C705A;}
	.st18{fill:#DA71BE;}
	.st19{fill:#6680DF;}
	.st20{fill:#FF9090;}
</style>
<g>
	<path class="st11" d="M8.2,531.9l79-465.6h119.8l93.2,248.3l92.6-248.3h119.8l79,465.6H471.4l-40.1-268l-109.9,268h-48.2
		l-104.4-268l-40.1,268H8.2z"/>
</g>
</svg>
