<?xml version="1.0" encoding="utf-8"?>
<!-- Generator: Adobe Illustrator 21.1.0, SVG Export Plug-In . SVG Version: 6.00 Build 0)  -->
<svg version="1.1" id="Calque_1" xmlns="http://www.w3.org/2000/svg" xmlns:xlink="http://www.w3.org/1999/xlink" x="0px" y="0px"
	 viewBox="0 0 1181 2000" style="enable-background:new 0 0 1181 2000;" xml:space="preserve">
<style type="text/css">
	.st0{fill:#FFC457;}
</style>
<g>
	<path class="st0" d="M347.2,1377.1v-561c34.4,8.6,71.6,11.5,111.7,11.5c111.6,0,208.9-37.2,269-97.4c43-45.7,74.4-114.4,74.4-191.7
		c0-77.2-25.8-131.7-60.1-165.9c-31.5-31.6-77.3-57.3-148.9-57.3c-82.9,0-128.8,34.2-145.9,51.5c-31.5,28.6-63,85.9-63,186h-372
		c0-148.8,62.9-300.5,143.1-386.4C232.8,86.5,367.3,6.3,607.7,6.3c148.9,0,297.7,28.6,417.8,146c80.1,77.2,148.9,203.1,148.9,394.8
		c0,154.7-48.6,272-146,369.3c-71.5,71.6-180.3,140.2-326.2,160.3v300.5H347.2z M524.7,1554.5c125.9,0,223.2,97.3,223.2,223.1
		c0,126.1-97.3,223.3-223.2,223.3c-126,0-223.2-97.3-223.2-223.3C301.5,1651.8,398.8,1554.5,524.7,1554.5z"/>
</g>
</svg>
