<?xml version="1.0" encoding="utf-8"?>
<!-- Generator: Adobe Illustrator 23.0.1, SVG Export Plug-In . SVG Version: 6.00 Build 0)  -->
<svg version="1.1" id="Calque_1" xmlns="http://www.w3.org/2000/svg" xmlns:xlink="http://www.w3.org/1999/xlink" x="0px" y="0px"
	 viewBox="0 0 102 90" style="enable-background:new 0 0 102 90;" xml:space="preserve">
<style type="text/css">
	.st0{fill:#A5CAF8;}
	.st1{fill:#504F4A;}
	.st2{fill:#39826E;}
	.st3{fill:#FF9090;}
	.st4{fill:#CC7E58;}
	.st5{fill:#FFA74C;}
	.st6{fill:#DA71BE;}
	.st7{fill:#6680DF;}
	.st8{fill:#0040A5;}
	.st9{fill:#FFC457;}
	.st10{fill:#6AB0E8;}
	.st11{fill:#E4E823;}
	.st12{fill:#9C705A;}
	.st13{fill:#B70B0B;}
	.st14{fill:#CC8C86;}
	.st15{fill:#A6C77E;}
	.st16{fill:#F6D600;}
	.st17{fill:#B16F29;}
	.st18{fill:#8B8C88;}
	.st19{fill:#DF4444;}
	.st20{fill:#B96063;}
</style>
<g>
	<path class="st1" d="M80.1,35c-3.9-4.7-8.6-7.1-14.3-7.1c-2.5,0-4.8,0.5-6.9,1.4c-2.1,0.9-4,2.1-5.5,3.7c-1.5,1.6-2.7,3.4-3.6,5.6
		c-0.9,2.2-1.3,4.5-1.3,7c0,2.5,0.4,4.9,1.3,7.1c0.9,2.2,2.1,4,3.7,5.6c1.6,1.6,3.4,2.8,5.5,3.7c2.1,0.9,4.4,1.4,6.8,1.4
		c5.3,0,10.1-2.3,14.4-6.8v19.7l-1.7,0.6c-2.5,0.9-4.9,1.6-7.1,2c-2.2,0.4-4.4,0.6-6.5,0.6c-4.4,0-8.7-0.8-12.7-2.5
		c-4.1-1.7-7.6-4-10.7-7.1c-3.1-3-5.6-6.6-7.4-10.8c-1.9-4.2-2.8-8.7-2.8-13.6s0.9-9.4,2.8-13.6c1.8-4.1,4.3-7.7,7.4-10.6
		c3.1-3,6.7-5.3,10.8-7c4.1-1.7,8.4-2.5,12.8-2.5c2.6,0,5.1,0.3,7.5,0.8c2.5,0.5,5.1,1.4,7.8,2.5V35z"/>
</g>
</svg>
