<?xml version="1.0" encoding="utf-8"?>
<!-- Generator: Adobe Illustrator 23.0.1, SVG Export Plug-In . SVG Version: 6.00 Build 0)  -->
<svg version="1.1" id="Calque_1" xmlns="http://www.w3.org/2000/svg" xmlns:xlink="http://www.w3.org/1999/xlink" x="0px" y="0px"
	 viewBox="0 0 600 600" style="enable-background:new 0 0 600 600;" xml:space="preserve">
<style type="text/css">
	.st0{fill:#DF4444;}
	.st1{fill:#0040A5;}
	.st2{fill:#B16F29;}
	.st3{fill:#8B8C88;}
	.st4{fill:#B96063;}
	.st5{fill:#B70B0B;}
	.st6{fill:#A6C77E;}
	.st7{fill:#CC8C86;}
	.st8{fill:#6AB0E8;}
	.st9{fill:#FFC457;}
	.st10{fill:#E4E823;}
	.st11{fill:#F6D600;}
	.st12{fill:#A5CAF8;}
	.st13{fill:#CC7E58;}
	.st14{fill:#39826E;}
	.st15{fill:#504F4A;}
	.st16{fill:#FFA74C;}
	.st17{fill:#9C705A;}
	.st18{fill:#DA71BE;}
	.st19{fill:#6680DF;}
	.st20{fill:#FF9090;}
</style>
<g>
	<path class="st17" d="M8.4,300c0-32,5.9-61.8,17.7-89.5c11.8-27.6,28.2-51.7,49.2-72.3c21-20.6,46-36.7,75.2-48.3
		c29.2-11.6,61.3-17.4,96.3-17.4c34.7,0,66.7,5.8,96,17.4c29.3,11.6,54.6,27.7,75.7,48.3c21.1,20.6,37.6,44.7,49.4,72.3
		c11.8,27.6,17.7,57.4,17.7,89.5s-5.9,61.8-17.7,89.5c-11.8,27.6-28.3,51.7-49.4,72.3c-21.2,20.6-46.4,36.7-75.7,48.3
		c-29.3,11.6-61.4,17.4-96,17.4c-35.1,0-67.2-5.8-96.3-17.4c-29.2-11.6-54.2-27.7-75.2-48.3c-21-20.6-37.3-44.7-49.2-72.3
		C14.3,361.8,8.4,332,8.4,300z M125.5,300c0,17.2,3.2,33,9.7,47.4c6.5,14.5,15.2,27.1,26.3,37.7c11.1,10.7,23.9,19,38.6,24.9
		s30.2,8.9,46.6,8.9c16.4,0,31.9-2.9,46.6-8.9c14.7-5.9,27.6-14.2,38.9-24.9c11.2-10.7,20.1-23.2,26.6-37.7
		c6.5-14.5,9.7-30.3,9.7-47.4c0-17.1-3.2-33-9.7-47.4c-6.5-14.5-15.3-27.1-26.6-37.7c-11.2-10.7-24.2-19-38.9-24.9
		c-14.7-5.9-30.2-8.9-46.6-8.9c-16.4,0-31.9,3-46.6,8.9c-14.7,5.9-27.5,14.2-38.6,24.9c-11.1,10.7-19.8,23.2-26.3,37.7
		C128.8,267,125.5,282.9,125.5,300z"/>
</g>
</svg>
